{
	"name": "ongra-server",
	"copyright": "Max Alibaev, 2014-2016",
	"authors": ["Max Alibaev"],
	"dependencies": {
		"curtain": "~>0.1",
		"derelict-pq": "~>1.0.0",
		"inilike": "~>0.3.0",
		"jax:filters": "~>0.1.0",
		"kxml": "~>1.0.0",
		"liara": "~>0.9.1",
		"vibe-d": "~>0.7.26"
	},
	"buildRequirements": ["silenceDeprecations"],
	"versions": ["VibeCustomMain"],
	"targetType": "executable",
	"sourcePaths": ["."],
	"importPaths": ["."],
	"stringImportPaths": ["."],
	"libs": ["curl"]
}
