<?xml version="1.0" encoding="UTF-8" standalone="no"?>
<svg
   xmlns:dc="http://purl.org/dc/elements/1.1/"
   xmlns:cc="http://creativecommons.org/ns#"
   xmlns:rdf="http://www.w3.org/1999/02/22-rdf-syntax-ns#"
   xmlns:svg="http://www.w3.org/2000/svg"
   xmlns="http://www.w3.org/2000/svg"
   xmlns:sodipodi="http://sodipodi.sourceforge.net/DTD/sodipodi-0.dtd"
   xmlns:inkscape="http://www.inkscape.org/namespaces/inkscape"
   version="1.1"
   id="Layer_1"
   x="0px"
   y="0px"
   width="128"
   height="128"
   viewBox="5 -10 128 172.8"
   enable-background="new 0 0 100 100"
   xml:space="preserve"
   inkscape:version="0.91 r13725"
   sodipodi:docname="download.svg"><metadata
     id="metadata13"><rdf:RDF><cc:Work
         rdf:about=""><dc:format>image/svg+xml</dc:format><dc:type
           rdf:resource="http://purl.org/dc/dcmitype/StillImage" /><dc:title /></cc:Work></rdf:RDF></metadata><defs
     id="defs11" /><sodipodi:namedview
     pagecolor="#ffffff"
     bordercolor="#666666"
     borderopacity="1"
     objecttolerance="10"
     gridtolerance="10"
     guidetolerance="10"
     inkscape:pageopacity="0"
     inkscape:pageshadow="2"
     inkscape:window-width="1855"
     inkscape:window-height="1056"
     id="namedview9"
     showgrid="false"
     fit-margin-top="0"
     fit-margin-left="0"
     fit-margin-right="0"
     fit-margin-bottom="0"
     inkscape:zoom="3.337544"
     inkscape:cx="57.265309"
     inkscape:cy="41.11219"
     inkscape:window-x="65"
     inkscape:window-y="24"
     inkscape:window-maximized="1"
     inkscape:current-layer="Layer_1" /><path
     d="m 24.661102,63.035055 c 4.429405,-0.260631 7.98166,-3.781134 8.291242,-8.195985 l 0,-35.141528 c 0,-5.217913 4.229632,-9.447544 9.447544,-9.447544 l 53.252078,0 c 5.217914,0 9.447544,4.229631 9.447544,9.447544 l 0,34.830623 c 0.16273,4.553766 3.7679,8.231706 8.29124,8.505567 l 6.11358,0 0.50803,0.0013 c 6.59912,0.268569 11.86995,5.711392 11.86995,12.375343 0,3.713661 -1.63654,7.044975 -4.22566,9.31392 L 79.803746,136.26708 c -2.128707,3.75335 -6.158565,6.28292 -10.779805,6.28292 -4.52466,0 -8.481753,-2.42638 -10.640889,-6.0514 L 9.6768028,84.031067 C 7.5189901,81.803134 6.1933441,78.760234 6.1933441,75.413044 c 0,-6.835941 5.5420469,-12.376666 12.3766659,-12.376666 l 6.091092,0 z"
     id="path3"
     inkscape:connector-curvature="0"
     style="fill:#3890c4;fill-opacity:1" /></svg>