<?xml version="1.0" encoding="UTF-8" standalone="no"?>
<svg
   xmlns:dc="http://purl.org/dc/elements/1.1/"
   xmlns:cc="http://creativecommons.org/ns#"
   xmlns:rdf="http://www.w3.org/1999/02/22-rdf-syntax-ns#"
   xmlns:svg="http://www.w3.org/2000/svg"
   xmlns="http://www.w3.org/2000/svg"
   xmlns:sodipodi="http://sodipodi.sourceforge.net/DTD/sodipodi-0.dtd"
   xmlns:inkscape="http://www.inkscape.org/namespaces/inkscape"
   version="1.1"
   x="0px"
   y="0px"
   width="128"
   height="128"
   viewBox="1793 10.044 128 128"
   overflow="visible"
   enable-background="new 1793 10.044 100 100"
   xml:space="preserve"
   id="svg2"
   inkscape:version="0.48.5 r10040"
   sodipodi:docname="externallink.svg"
   style="overflow:visible"><metadata
     id="metadata14"><rdf:RDF><cc:Work
         rdf:about=""><dc:format>image/svg+xml</dc:format><dc:type
           rdf:resource="http://purl.org/dc/dcmitype/StillImage" /></cc:Work></rdf:RDF></metadata><sodipodi:namedview
     pagecolor="#ffffff"
     bordercolor="#666666"
     borderopacity="1"
     objecttolerance="10"
     gridtolerance="10"
     guidetolerance="10"
     inkscape:pageopacity="0"
     inkscape:pageshadow="2"
     inkscape:window-width="1855"
     inkscape:window-height="1056"
     id="namedview12"
     showgrid="false"
     inkscape:zoom="2.36"
     inkscape:cx="6.8455653"
     inkscape:cy="23.806108"
     inkscape:window-x="65"
     inkscape:window-y="24"
     inkscape:window-maximized="1"
     inkscape:current-layer="svg2"
     fit-margin-top="0"
     fit-margin-left="0"
     fit-margin-right="0"
     fit-margin-bottom="0" /><defs
     id="defs4" /><path
     d="m 1884.8617,108.72616 h -76.9474 V 40.937019 h 30.3136 c 5.1545,-3.716595 11.0988,-6.834767 17.825,-9.253983 4.0054,-1.445786 8.4178,-2.548476 13.1525,-3.38467 V 26.019579 H 1793 v 97.617641 h 106.7744 V 71.400639 l -14.9143,12.281196 v 25.044325 z"
     id="path6"
     inkscape:connector-curvature="0"
     style="fill:#3890c4;fill-opacity:1" /><path
     d="M 1921,44.602547 1885.4649,15.332578 V 32.05326 c -0.033,0 -0.063,0.0047 -0.093,0.0047 -10.4253,0.362245 -19.6395,1.895798 -27.4779,4.723536 -8.8105,3.174025 -16.076,7.474679 -21.8273,12.87483 -4.556,4.287887 -8.1464,9.171001 -10.8467,14.604665 -0.71,1.429827 -1.3993,2.864441 -1.9818,4.369271 -2.8054,7.225734 -4.7619,15.077019 -4.1922,23.142138 0.1372,1.99633 1.2368,7.93905 2.5214,7.93905 0,0 1.5989,-8.33161 8.0603,-17.877627 1.9788,-2.912316 4.2896,-5.666648 6.9481,-8.211932 l 0.2967,0.244156 v -0.521823 c 1.6517,-1.552703 3.4135,-3.041576 5.4018,-4.391613 5.3826,-3.647974 11.9685,-6.541141 19.7511,-8.676307 6.3768,-1.747388 13.6425,-2.763907 21.6837,-3.13413 h 1.7665 l -0.013,16.722277 35.5351,-29.261991 z"
     id="path8"
     inkscape:connector-curvature="0"
     style="fill:#3890c4;fill-opacity:1" /><text
     display="none"
     font-size="12"
     id="text10"
     style="font-size:12px;display:none;font-family:MyriadPro-Regular"
     x="14.000501"
     y="33.892075">&lt;nyt_prefs&gt;  &lt;nyt_prefix&gt;&lt;/nyt_prefix&gt;  &lt;nyt_suffix&gt;&lt;/nyt_suffix&gt;  &lt;nyt_base_path&gt;~/Dropbox/WORK/2014/Noun%20Project/15.9.14&lt;/nyt_base_path&gt;  &lt;nyt_scaling&gt;100&lt;/nyt_scaling&gt;  &lt;nyt_transparency&gt;true&lt;/nyt_transparency&gt;  &lt;nyt_embedImage&gt;false&lt;/nyt_embedImage&gt;  &lt;nyt_embedFont&gt;true&lt;/nyt_embedFont&gt;  &lt;nyt_trimEdges&gt;false&lt;/nyt_trimEdges&gt;  &lt;nyt_format&gt;SVG&lt;/nyt_format&gt;  &lt;nyt_artboards&gt;all&lt;/nyt_artboards&gt;  &lt;nyt_layers&gt;none&lt;/nyt_layers&gt;  &lt;nyt_exportArtboards&gt;true&lt;/nyt_exportArtboards&gt;  &lt;nyt_ignoreWarnings&gt;false&lt;/nyt_ignoreWarnings&gt;&lt;/nyt_prefs&gt;</text>
</svg>