<?xml version="1.0" encoding="UTF-8" standalone="no"?>
<svg
   xmlns:dc="http://purl.org/dc/elements/1.1/"
   xmlns:cc="http://creativecommons.org/ns#"
   xmlns:rdf="http://www.w3.org/1999/02/22-rdf-syntax-ns#"
   xmlns:svg="http://www.w3.org/2000/svg"
   xmlns="http://www.w3.org/2000/svg"
   xmlns:sodipodi="http://sodipodi.sourceforge.net/DTD/sodipodi-0.dtd"
   xmlns:inkscape="http://www.inkscape.org/namespaces/inkscape"
   version="1.1"
   id="Layer_1"
   x="0px"
   y="0px"
   width="128"
   height="128"
   viewBox="0 0 128 128"
   enable-background="new 0 0 13.999 12"
   xml:space="preserve"
   inkscape:version="0.48.5 r10040"
   sodipodi:docname="heart.svg"><metadata
     id="metadata3027"><rdf:RDF><cc:Work
         rdf:about=""><dc:format>image/svg+xml</dc:format><dc:type
           rdf:resource="http://purl.org/dc/dcmitype/StillImage" /></cc:Work></rdf:RDF></metadata><defs
     id="defs3025" /><sodipodi:namedview
     pagecolor="#ffffff"
     bordercolor="#666666"
     borderopacity="1"
     objecttolerance="10"
     gridtolerance="10"
     guidetolerance="10"
     inkscape:pageopacity="0"
     inkscape:pageshadow="2"
     inkscape:window-width="1855"
     inkscape:window-height="1056"
     id="namedview3023"
     showgrid="false"
     fit-margin-top="0"
     fit-margin-left="0"
     fit-margin-right="0"
     fit-margin-bottom="0"
     inkscape:zoom="3.4766083"
     inkscape:cx="-41.044898"
     inkscape:cy="15.6442"
     inkscape:window-x="65"
     inkscape:window-y="24"
     inkscape:window-maximized="1"
     inkscape:current-layer="Layer_1" /><path
     d="M 109.17946,12.842488 C 92.872786,5.2973353 71.545155,12.394351 64.000002,28.664444 56.454849,12.394351 35.127218,5.2881893 18.820542,12.842488 1.4529721,20.899796 -6.8512689,41.477486 6.8671911,65.750013 16.607297,83.026127 33.874265,96.04037 64.000002,119.3709 94.125739,96.04037 111.39271,83.016981 121.13281,65.750013 134.85127,41.477486 126.54703,20.899796 109.17946,12.842488 z"
     id="path3021"
     inkscape:connector-curvature="0"
     style="fill:#3890c4" /></svg>