<?xml version="1.0" encoding="UTF-8" standalone="no"?>
<svg
   xmlns:dc="http://purl.org/dc/elements/1.1/"
   xmlns:cc="http://creativecommons.org/ns#"
   xmlns:rdf="http://www.w3.org/1999/02/22-rdf-syntax-ns#"
   xmlns:svg="http://www.w3.org/2000/svg"
   xmlns="http://www.w3.org/2000/svg"
   xmlns:sodipodi="http://sodipodi.sourceforge.net/DTD/sodipodi-0.dtd"
   xmlns:inkscape="http://www.inkscape.org/namespaces/inkscape"
   version="1.1"
   id="Layer_1"
   x="0px"
   y="0px"
   viewBox="0 0 128 128"
   enable-background="new 0 0 100 100"
   xml:space="preserve"
   height="128"
   width="128"
   inkscape:version="0.48.5 r10040"
   sodipodi:docname="link.svg"><metadata
     id="metadata16"><rdf:RDF><cc:Work
         rdf:about=""><dc:format>image/svg+xml</dc:format><dc:type
           rdf:resource="http://purl.org/dc/dcmitype/StillImage" /></cc:Work></rdf:RDF></metadata><defs
     id="defs14" /><sodipodi:namedview
     pagecolor="#ffffff"
     bordercolor="#666666"
     borderopacity="1"
     objecttolerance="10"
     gridtolerance="10"
     guidetolerance="10"
     inkscape:pageopacity="0"
     inkscape:pageshadow="2"
     inkscape:window-width="1855"
     inkscape:window-height="1056"
     id="namedview12"
     showgrid="false"
     inkscape:zoom="2.36"
     inkscape:cx="-6.4100402"
     inkscape:cy="63.9562"
     inkscape:window-x="65"
     inkscape:window-y="24"
     inkscape:window-maximized="1"
     inkscape:current-layer="Layer_1"
     fit-margin-top="0"
     fit-margin-left="0"
     fit-margin-right="0"
     fit-margin-bottom="0" /><g
     id="Link"
     transform="matrix(1.6225619,0,0,1.6225619,-17.199156,-17.057037)"><g
       id="g4"><path
         d="m 27.6,79.6 -7.1,-7.1 c -1.2,-1.2 -1.2,-3.1 0,-4.3 L 41.8,46.9 c -5,-2.4 -11.2,-1.6 -15.3,2.6 l -12,11.8 c -5.2,5.2 -5.2,13.7 0,18.9 l 5.3,5.3 c 5.2,5.2 13.7,5.2 18.9,0 L 50.6,73.6 c 4.1,-4.1 5,-10.3 2.6,-15.3 L 31.9,79.6 c -1.2,1.2 -3.1,1.2 -4.3,0 z"
         id="path6"
         inkscape:connector-curvature="0"
         style="fill:#3890c4" /><path
         d="M 61.3,14.5 49.4,26.4 c -4.1,4.1 -5,10.3 -2.6,15.3 L 68.1,20.4 c 1.2,-1.2 3.1,-1.2 4.3,0 l 7.1,7.1 c 1.2,1.2 1.2,3.1 0,4.3 L 58.3,53.1 c 5,2.4 11.2,1.6 15.3,-2.6 L 85.5,38.6 c 5.2,-5.2 5.2,-13.7 0,-18.9 L 80.2,14.4 C 75,9.2 66.6,9.2 61.3,14.5 z"
         id="path8"
         inkscape:connector-curvature="0"
         style="fill:#3890c4" /><path
         d="m 34.7,65.3 c 1.8,1.8 4.7,1.8 6.6,0 L 65.4,41.2 c 1.8,-1.8 1.8,-4.7 0,-6.6 -1.8,-1.8 -4.7,-1.8 -6.6,0 L 34.7,58.8 c -1.8,1.8 -1.8,4.7 0,6.5 z"
         id="path10"
         inkscape:connector-curvature="0"
         style="fill:#3890c4" /></g></g></svg>